…
``` r
# Unindo as duas tabelas em uma
dados_ea <- bind_rows(
  mutate(media, cult = "Primeiro"),
  mutate(medias, cult = "Acumulado")
)

# Ajustando os níveis da variável "cult"
dados_ea$cult <- factor(dados_ea$cult, levels = c("Primeiro", "Acumulado"))

# Visualizando
dados_ea
```

    ## # A tibble: 24 × 4
    ##    trat         mspa efi_rel cult    
    ##    <ord>       <dbl>   <dbl> <fct>   
    ##  1 Controle    1.05     0    Primeiro
    ##  2 Bonito      0.586   -3.56 Primeiro
    ##  3 Pratápolis  0.769   -2.16 Primeiro
    ##  4 Catalão     1.47     3.21 Primeiro
    ##  5 Arraias     2.45    10.8  Primeiro
    ##  6 Registro    2.88    14.0  Primeiro
    ##  7 Digestato   2.26     9.28 Primeiro
    ##  8 Marrocos    3.50    18.8  Primeiro
    ##  9 Argélia    10.7     74.4  Primeiro
    ## 10 Bayóvar    10.7     74.0  Primeiro
    ## # ℹ 14 more rows
…
``` r
# Unindo as duas tabelas em uma
dados_ep <- bind_rows(
  mutate(medip, cult = "Primeiro"),
  mutate(mediap, cult = "Acumulado")
)

# Ajustando os níveis da variável "cult"
dados_ep$cult <- factor(dados_ep$cult, levels = c("Primeiro", "Acumulado"))

# Visualizando
dados_ep
```

    ## # A tibble: 24 × 4
    ##    trat           ap efi_pho cult    
    ##    <ord>       <dbl>   <dbl> <fct>   
    ##  1 Controle    0.346    0    Primeiro
    ##  2 Bonito      0.679    2.11 Primeiro
    ##  3 Pratápolis  1.27     5.88 Primeiro
    ##  4 Catalão     2.45    13.4  Primeiro
    ##  5 Arraias     4.92    29.0  Primeiro
    ##  6 Registro    5.71    34.0  Primeiro
    ##  7 Digestato   4.37    25.5  Primeiro
    ##  8 Marrocos    8.46    51.4  Primeiro
    ##  9 Argélia    25.7    161.   Primeiro
    ## 10 Bayóvar    19.9    124.   Primeiro
    ## # ℹ 14 more rows
…
